[22:25:39 INFO] Test has started running:isLetterSentTest at: 1656271539914
[22:26:36 INFO] Successful test
[22:26:36 INFO] Test has started running:deleteSentLetter at: 1656271596325
[22:26:45 INFO] Successful test
[22:26:46 INFO] Passed tests: [ResultMap map=[[TestResult name=isLetterSentTest status=SUCCESS method=SendMail_Test.isLetterSentTest()[pri:1, instance:SendMail_Test@463fd068] output={null}], [TestResult name=deleteSentLetter status=SUCCESS method=SendMail_Test.deleteSentLetter()[pri:2, instance:SendMail_Test@463fd068] output={null}]]]
[22:26:46 INFO] Failed tests: [ResultMap map=[]]
[22:37:18 INFO] Test has started running:isLetterSentTest at: 1656272238847
[22:38:46 INFO] Test has started running:deleteSentLetter at: 1656272326685
[22:41:28 INFO] Test has started running:isLetterSentTest at: 1656272488587
[22:42:42 INFO] Passed tests: [ResultMap map=[]]
[22:42:42 INFO] Failed tests: [ResultMap map=[[TestResult name=isLetterSentTest status=FAILURE method=SendMail_Test.isLetterSentTest()[pri:1, instance:SendMail_Test@4808bc9b] output={null}]]]
[22:47:20 INFO] Test has started running:isLetterSentTest at: 1656272840288
[22:48:47 INFO] Passed tests: [ResultMap map=[]]
[22:48:47 INFO] Failed tests: [ResultMap map=[[TestResult name=isLetterSentTest status=FAILURE method=SendMail_Test.isLetterSentTest()[pri:1, instance:SendMail_Test@70e38ce1] output={null}]]]
[22:54:13 INFO] Test has started running:isLetterSentTest at: 1656273253874
[22:55:30 INFO] Passed tests: [ResultMap map=[]]
[22:55:30 INFO] Failed tests: [ResultMap map=[[TestResult name=isLetterSentTest status=FAILURE method=SendMail_Test.isLetterSentTest()[pri:1, instance:SendMail_Test@4808bc9b] output={null}]]]
[22:56:45 INFO] Test has started running:isLetterSentTest at: 1656273405978
[22:58:02 INFO] Passed tests: [ResultMap map=[]]
[22:58:02 INFO] Failed tests: [ResultMap map=[[TestResult name=isLetterSentTest status=FAILURE method=SendMail_Test.isLetterSentTest()[pri:1, instance:SendMail_Test@895e367] output={null}]]]
[23:13:02 INFO] Test has started running:isLetterSentTest at: 1656274382537
[23:14:30 INFO] Passed tests: [ResultMap map=[]]
[23:14:30 INFO] Failed tests: [ResultMap map=[[TestResult name=isLetterSentTest status=FAILURE method=SendMail_Test.isLetterSentTest()[pri:1, instance:SendMail_Test@895e367] output={null}]]]
[23:17:36 INFO] Test has started running:isLetterSentTest at: 1656274656418
[23:18:52 INFO] Passed tests: [ResultMap map=[]]
[23:18:52 INFO] Failed tests: [ResultMap map=[[TestResult name=isLetterSentTest status=FAILURE method=SendMail_Test.isLetterSentTest()[pri:1, instance:SendMail_Test@39d9314d] output={null}]]]
[23:33:41 INFO] Test has started running:isLetterSentTest at: 1656275621581
[23:34:58 INFO] Passed tests: [ResultMap map=[]]
[23:34:58 INFO] Failed tests: [ResultMap map=[[TestResult name=isLetterSentTest status=FAILURE method=SendMail_Test.isLetterSentTest()[pri:1, instance:SendMail_Test@39d9314d] output={null}]]]
[23:49:30 INFO] Test has started running:isLetterSentTest at: 1656276570690
[23:50:48 INFO] Test has started running:deleteSentLetter at: 1656276648358
[23:53:21 INFO] Test has started running:isLetterSentTest at: 1656276801913
[23:54:16 INFO] Successful test
[23:54:16 INFO] Test has started running:deleteSentLetter at: 1656276856748
[23:54:24 INFO] Successful test
[23:54:25 INFO] Passed tests: [ResultMap map=[[TestResult name=deleteSentLetter status=SUCCESS method=SendMail_Test.deleteSentLetter()[pri:2, instance:SendMail_Test@39d9314d] output=Letter is deleted], [TestResult name=isLetterSentTest status=SUCCESS method=SendMail_Test.isLetterSentTest()[pri:1, instance:SendMail_Test@39d9314d] output=Start page is skipped]]]
[23:54:25 INFO] Failed tests: [ResultMap map=[]]
[23:58:15 INFO] Test has started running:isLetterSentTest at: 1656277095003
[23:59:13 INFO] Successful test
[23:59:13 INFO] Test has started running:deleteSentLetter at: 1656277153420
[23:59:20 INFO] Successful test
[23:59:21 INFO] Passed tests: [ResultMap map=[[TestResult name=isLetterSentTest status=SUCCESS method=SendMail_Test.isLetterSentTest()[pri:1, instance:SendMail_Test@747f281] output=Start page is skipped], [TestResult name=deleteSentLetter status=SUCCESS method=SendMail_Test.deleteSentLetter()[pri:2, instance:SendMail_Test@747f281] output=Letter is deleted]]]
[23:59:21 INFO] Failed tests: [ResultMap map=[]]
