pageObjects\ComposePage.class
pageObjects\BasePage.class
pageObjects\EmailPage.class
driver\AndroidDriverSingleton.class
capabilitiesFactory\CapabilitiesFactory.class
businessObjects\GmailBO.class
pageObjects\StartPage.class
pageObjects\SentLettersPage.class
pageObjects\PrimaryPage.class
